"USER_ID","LAST_TRANSACTION"
"00a98617-0d8e-45d8-bca0-b67fe5d3471d","2017-01"
"02da5085-83ea-426e-8d95-54eeba7dc70b","2017-01"
"0314aa87-cf7e-43f2-86c6-ae36dfa4d9b0","2017-01"
"06bb2d68-bf61-4030-8447-9de64d3ce490","2017-01"
"091db21b-ea00-441d-9874-ec8bbaf57259","2017-01"
"0b42340c-ddfc-41dd-a779-3bf5d72343e8","2017-01"
"0c83bd66-bd37-479a-94d5-df0a32d71770","2017-01"
"13de2a1c-c1e3-4392-9ddb-e1869cfdb9be","2017-01"
"15a3f1ba-8a78-4672-ab41-b0b72e4458c3","2017-01"
"1f5465ae-86e9-4abb-a475-fece13e55b95","2017-01"
"20100a1d-12bc-41ed-a5e1-bc46216e9696","2017-01"
"26556494-6355-4888-b5de-9956a32a7bf5","2017-01"
"26e8432c-5fdb-4b67-82e6-18f341d511a1","2017-01"
"287727bc-9d6d-4439-9d5e-b629a26e461b","2017-01"
"2bb6f304-6a52-4867-a41e-55a91ab8fa8d","2017-01"
"2bd07818-df77-4bc2-b7a5-1a68580151de","2017-01"
"2c295b27-9f2a-4e48-8463-cd58a3f6ad5a","2017-01"
"2d984839-2f42-4756-9d9a-8dc0e9291409","2017-01"
"2dc5ec96-39fe-4875-9c61-4845c213d7c2","2017-01"
"2fa74422-972a-4e28-adf4-104ae9d68e27","2017-01"
"3365fa84-0f6f-4656-b834-babf3ac820ef","2017-01"
"3606e298-66e2-4194-8c13-865312dfb682","2017-01"
"3b0d7c76-1148-4c92-941d-b278395c7671","2017-01"
"3ec1824e-2cdd-43f0-8d34-897f3425a066","2017-01"
"3fc813b5-39dc-4780-bd4f-bd7f9c6fdb5b","2017-01"
"4385b132-9cfe-47e3-b8a5-03214bea314c","2017-01"
"44c4ebad-987d-4f1e-83d4-15652cb8434a","2017-01"
"46172727-471c-4627-b706-1f9881a8e4d2","2017-01"
"47e48a30-1eb3-43f8-b54b-b104d58d1d56","2017-01"
"48eef0ad-9929-4944-9e51-35de36b67ffd","2017-01"
"49a8a2df-b674-42fb-9f28-7f4732ad313f","2017-01"
"4c9bf7cb-f92d-4832-9cfd-96f43b15f646","2017-01"
"4efa20df-2d8c-4edd-8dfb-d63743c6de3d","2017-01"
"4f71a11d-ae87-4b5d-aed8-c6b009f42cf0","2017-01"
"4fcdb2f7-4bde-49ef-a936-4e832c7c8619","2017-01"
"4feae05e-8dda-47c9-9bae-22efedf84a31","2017-01"
"510d95da-f984-4fc5-8bc5-a42642d61a28","2017-01"
"55525a77-e67f-458a-8ba8-8c229f91ddb0","2017-01"
"57f4300b-4eb9-4789-a703-362e2b46bd54","2017-01"
"586aebc4-0b31-4676-8e5a-d7978a4bbff5","2017-01"
"59151119-e6be-4f20-a1dd-221bd16d220e","2017-01"
"598be45c-7910-4cb9-9e71-1f1189cb6ced","2017-01"
"59c21d79-8c49-4275-b06d-d1410c08e5df","2017-01"
"5bd4f815-467c-472b-8c0c-d5dbc4699d72","2017-01"
"5c66f743-cba3-48aa-86a7-2562d051c277","2017-01"
"5f37ca97-8aa0-4fd9-bce4-1eb50240c2ff","2017-01"
"5fd70cca-1685-40ad-a312-7d387f6911a9","2017-01"
"62aaa0fb-65ae-44b6-884d-56f38a302b3e","2017-01"
"63b3d02d-568f-4116-a023-65764a060d35","2017-01"
"64dc41e0-faf4-4bc5-8929-dc3c48aa554f","2017-01"
"64f168e8-0468-47f0-a6d0-fe5d70c9af63","2017-01"
"64fd8b77-c687-4443-8fce-fd3238c45e51","2017-01"
"65a54743-5bc0-41bf-9cac-e30d503925d2","2017-01"
"65f8102d-4223-4c6f-9bf8-81421b721007","2017-01"
"66573e65-b0e1-4b2d-aab5-7b7a097c5df3","2017-01"
"678b74b3-34cd-426f-98e2-efafa56826e6","2017-01"
"68c81cbf-98e2-4418-86de-ec8c4b57e512","2017-01"
"694e66b2-baa1-4912-87eb-adc7fdd41dd8","2017-01"
"6b282ace-7348-48fa-97ad-14e4023fc1f5","2017-01"
"6b80d5bf-a537-4b39-aeb3-06c80f0284f5","2017-01"
"6c8b333f-86e9-44a7-8fba-c8fe4ff7e78c","2017-01"
"6cae3eb6-515c-4811-8b51-32fb2e95da28","2017-01"
"6ec8a147-162a-461f-9a89-34cbb1275dff","2017-01"
"714661e3-b09b-42ef-a7b8-14a90bd455f5","2017-01"
"71aa9559-601d-43a8-bee0-352862ebb72a","2017-01"
"737a7b7b-063c-4cd9-a91f-8266da1a6bff","2017-01"
"7827201f-f7d4-4239-8206-f999ace6c11a","2017-01"
"7960e8d0-1b8c-4ff2-84b7-13e2218c7889","2017-01"
"797209a2-02f1-4d86-ad39-4607f85ed00c","2017-01"
"7e0980dd-f859-4fab-8b46-6d5f35bbc029","2017-01"
"7e91f710-1690-480e-9a2d-70d7f38c3836","2017-01"
"814744d9-e0b8-40d5-9a01-64b61122ca1c","2017-01"
"825fa46b-69f0-446b-803e-57d47162a25e","2017-01"
"826dc8df-8d9d-475d-8275-a3b23096ca82","2017-01"
"84020048-ade9-4eb6-9a0a-8e43f4f7d312","2017-01"
"84e22e7f-f2ab-413c-969a-667c78d8885c","2017-01"
"8594ff16-5d0f-43c9-93bb-c954966077a9","2017-01"
"86b459a4-e242-4c61-9038-f069ab7b1c14","2017-01"
"8c25ea77-4832-476e-a531-287612005948","2017-01"
"8c8917f3-9393-4bc3-9cb2-639d9f3a5680","2017-01"
"8dd8b009-bcc7-4b14-a26f-c87c232383f4","2017-01"
"8e1146cc-a9bc-4d48-beeb-bdf333424d82","2017-01"
"93ee5358-e782-42b2-b9ac-1478c180476f","2017-01"
"949acea2-aff8-4ed4-835f-1b6e13939ec5","2017-01"
"94fee180-125f-4d41-8f1f-97adaa03e19b","2017-01"
"968aa748-7411-4d66-904b-19362253b866","2017-01"
"9818f617-fb92-42f9-9862-e471ac890a17","2017-01"
"99afb4c9-7d89-47fe-bab0-5737e875a3aa","2017-01"
"9b3bec96-fa19-42c6-8cf4-a5a33b74b59c","2017-01"
"9b3e3d02-e389-4a56-8fe1-6d6a7357e8c9","2017-01"
"9c8a1ea6-b57c-4084-ac2d-58bc339e4e86","2017-01"
"9e988c5b-71d0-4f3e-8f81-b3c30aa9c240","2017-01"
"9f236a4c-4b46-40d2-b0b7-bdd84ecf54d0","2017-01"
"9f85e8b0-35ff-42f2-96c7-7ad53c1b36fa","2017-01"
"a0d355b2-d5c0-4a58-8cef-7362ecd78d68","2017-01"
"a36a18e8-8f5b-4d40-9bc6-01c13390c3cb","2017-01"
"a73aecf2-9b09-4b8d-8ca8-84fb971ba20c","2017-01"
"aa76a847-1722-4a36-ab94-cd550e794837","2017-01"
"ac464526-3071-43f9-a57d-7765b1d82b80","2017-01"
"ad98023f-02f0-4abd-82e8-35e0a117d1f6","2017-01"
"aea8946f-8f82-4b45-b423-7a81cf96a6ba","2017-01"
"b1693eae-6a23-49af-be37-14ecdb77ab6f","2017-01"
"b27de25f-1d4b-42fc-aa65-baa39852d52f","2017-01"
"b4c1e2ed-731b-418c-b342-7cee69e1babb","2017-01"
"b69856ee-b0ec-4b66-90c1-f3e9ac44582e","2017-01"
"b79acb3c-47d7-4587-8e4c-15dffa6c6a71","2017-01"
"b8418dcf-d3d8-4cca-8020-e4e4b3138e31","2017-01"
"b96cb757-2899-4988-af3e-2eb29e467555","2017-01"
"ba15d27b-dcc2-4b50-8ef1-3d19075c064c","2017-01"
"bc1ab5fb-149f-4efc-b713-e871444feb09","2017-01"
"bc68f7b2-0be9-457a-a729-85099204986c","2017-01"
"c069a845-b843-475e-af4f-a27e379f1c76","2017-01"
"c190d923-ff58-4995-b260-1407b29366ff","2017-01"
"c1e2750b-9031-4720-83a1-24cc6701f71a","2017-01"
"c23654ed-497c-477f-9bfe-c18b306d423f","2017-01"
"c2e8a724-b541-47fc-ad3c-8daf8540989a","2017-01"
"c4275704-1d35-4e13-9294-dafbd40c7746","2017-01"
"c483216d-b457-44cc-bdab-9a65f44c9620","2017-01"
"c66d03e5-3f2c-45c7-8ca4-11beed288138","2017-01"
"c8a15f57-c18c-4af7-8c5e-b80f50f370c4","2017-01"
"c94c2fa7-06cc-4c4e-b5b8-c8fcc20798f6","2017-01"
"cd87063d-e496-4bf4-8970-04da377d2178","2017-01"
"cd95984d-2d7c-4b14-9f34-2efe98229d53","2017-01"
"d1bc3cd6-154e-479f-8957-a69cdf414462","2017-01"
"d35f19f3-d9ad-48bf-bd1e-90f3ba4f0b98","2017-01"
"d3b4b2fc-554b-4465-ad23-25889df130c5","2017-01"
"d6666b1c-0c4a-461e-a665-343134359c82","2017-01"
"d91e4426-38cb-4469-804f-2b727298dcf4","2017-01"
"db99d304-92ca-42bb-9051-ae49af4ed014","2017-01"
"dc5e2729-0123-4f81-9750-ff4fffdcbffe","2017-01"
"dcae1b24-d3f8-4f68-b4e2-6a9aa987e90f","2017-01"
"dd1bc3eb-c6ef-4139-acf5-f79b02d1f653","2017-01"
"dda53aa4-bf35-4fb0-baf3-849819bb9aa3","2017-01"
"ddd339c3-ec9d-4e80-befb-00369d69232b","2017-01"
"ded2d8db-80d1-4f00-bef7-94bd59fa4595","2017-01"
"dfbf8b94-0b5c-4e71-b780-39dbf2fdea87","2017-01"
"e18b2729-3b60-4a93-932d-a66551870ea7","2017-01"
"e318d944-e7cf-4d65-a6eb-aa11f10c2574","2017-01"
"e3874f6a-c4eb-44c9-859b-7923a17b8746","2017-01"
"eabeb600-8010-4eaa-9845-91a20e385996","2017-01"
"eb2e7c2b-88de-48dd-8717-4cbca15a3d22","2017-01"
"ec08c44e-da34-44f6-9acb-8f2cc3909e81","2017-01"
"ec7b2764-0fa8-4010-8fed-83aefda15484","2017-01"
"ee0ef471-6e1f-45ea-9a08-57916e041fa3","2017-01"
"ee48883a-85b0-4a0e-a89d-f4411e811e37","2017-01"
"ee69a4a4-1aae-4422-b02a-b65d74d21ef0","2017-01"
"ee7fce18-8856-49ba-8dc3-105f65cf1541","2017-01"
"efedf9d5-ab17-44d9-8caf-830e822a7876","2017-01"
"f075c7b3-9049-45a0-83a0-97e5ae144038","2017-01"
"f1772245-4581-45eb-8d21-c62586cafba4","2017-01"
"f19304b2-bec6-457e-853c-763f7678991e","2017-01"
"f93b307a-270b-41fc-96b5-f93b4570da6a","2017-01"
"fa80e81b-2595-4a4e-b75b-5f6050f882a1","2017-01"
"fc3caa98-360a-44a8-ad2d-04a5dfe18cf7","2017-01"
"fd3a3751-e671-409b-8a31-48e7399c08dc","2017-01"
"fde8dd5a-5c34-4bc0-ac65-9014f936ec40","2017-01"
"fdee59c1-0e47-4e0d-9e91-4d915f7e9ef7","2017-01"
"fe767d25-b355-47fd-b133-bce79860ad5c","2017-01"
"fec28ec7-84d6-45f8-b00a-d0f309ab30b5","2017-01"
"ff861ba2-d984-47ae-95a1-5fe143e0710c","2017-01"