"USER_ID","CURRENCY","TYPE","TRANSACTIONS"
"00a98617-0d8e-45d8-bca0-b67fe5d3471d","GBP","BANK_TRANSFER",3
"0169a613-81c2-44d9-a90e-39e3cab34380","GBP","BANK_TRANSFER",1
"01d7f34c-1474-4d0d-94e3-e538dfcb2157","GBP","BANK_TRANSFER",1
"0225460a-a10e-4210-8267-e016b3269440","GBP","BANK_TRANSFER",1
"029407a3-60fd-43cd-8a68-aea7fce088ac","GBP","BANK_TRANSFER",1
"0314aa87-cf7e-43f2-86c6-ae36dfa4d9b0","GBP","BANK_TRANSFER",1
"0381e33c-219e-472a-989e-67911f1e0d9d","GBP","BANK_TRANSFER",1
"03cca4fa-3724-4c2c-bfb6-297a62df1496","GBP","BANK_TRANSFER",8
"04538ff3-0582-4d6d-bdfd-0b5404dfbca7","GBP","BANK_TRANSFER",5
"055e3e2c-7106-40a0-b116-04b1ba3b038b","GBP","BANK_TRANSFER",3
"05a80a75-18e1-4db6-9c97-231d64fc3264","GBP","BANK_TRANSFER",1
"05bd5215-804c-4d4d-ab4b-a183a6bf119e","GBP","BANK_TRANSFER",3
"06bb2d68-bf61-4030-8447-9de64d3ce490","GBP","BANK_TRANSFER",7
"06fd330f-3cf4-44fe-b44f-fe556d48a175","GBP","BANK_TRANSFER",3
"0755c3b9-08a8-43e7-ae14-ec4bedf9652b","GBP","BANK_TRANSFER",1
"0775525b-c2a3-469b-a09f-a6b94db3f155","GBP","BANK_TRANSFER",1
"07983cf0-257b-478d-b41a-3ac3b04f61ec","GBP","BANK_TRANSFER",1
"091db21b-ea00-441d-9874-ec8bbaf57259","GBP","BANK_TRANSFER",5
"0a30f198-2568-4fea-859e-fea7e16f9844","GBP","BANK_TRANSFER",1
"0aae50d1-01cc-408a-959b-540782064500","GBP","BANK_TRANSFER",1
"0abe2cd0-cf31-496d-847c-8dbaaff59334","GBP","BANK_TRANSFER",5
"0b42340c-ddfc-41dd-a779-3bf5d72343e8","GBP","BANK_TRANSFER",5
"0bbf7f56-2731-45ee-bed9-51cd981af7c1","GBP","BANK_TRANSFER",2
"0bd1abbf-c76a-4e3f-afab-5ccadf19cf66","GBP","BANK_TRANSFER",3
"0c3e56f0-7ffc-4016-b6cc-2071dbfe8418","GBP","BANK_TRANSFER",1
"0c83bd66-bd37-479a-94d5-df0a32d71770","GBP","BANK_TRANSFER",4
"0cd7ea4c-142b-42c6-a1c1-776e959343c1","GBP","BANK_TRANSFER",2
"0ce251c6-5e00-41a7-8ddd-badb56438df5","GBP","BANK_TRANSFER",2
"0e52e8a5-805e-4636-b18f-ee25c870dcf7","GBP","BANK_TRANSFER",1
"0e5d15be-6964-4ae7-a540-3fe633a7ddb4","GBP","BANK_TRANSFER",3
"0ea52336-aa1b-4dab-ab5f-84e9d1ed2766","GBP","BANK_TRANSFER",1
"0f52abdb-3a7f-4e77-bc1b-a80ac71e2e09","GBP","BANK_TRANSFER",1
"0f537500-9a1c-4a79-9cb3-fd3b0b292848","GBP","BANK_TRANSFER",2
"0fe472c9-cf3e-4e43-90f3-a0cfb6a4f1f0","GBP","BANK_TRANSFER",15
"10a3ed6c-b711-409d-bb7d-4a0cba9a2ad8","GBP","BANK_TRANSFER",1
"1174a22f-007f-464f-bca1-17d687c30933","GBP","BANK_TRANSFER",1
"11cf4afd-53e2-49ac-851a-8c2578366443","GBP","BANK_TRANSFER",1
"11df3e07-21d3-4d56-90ae-db94631e6163","GBP","BANK_TRANSFER",1
"122d706d-bdb6-4009-bdbc-2911ad7cf87c","GBP","BANK_TRANSFER",5
"12865f42-2909-4344-837c-b0e80b44f3fa","GBP","BANK_TRANSFER",1
"1319cca9-02a7-4a15-8abb-48d4e08e5aa3","GBP","BANK_TRANSFER",2
"133dc0db-2d52-4a2d-b656-4861c0402460","GBP","BANK_TRANSFER",1
"13de2a1c-c1e3-4392-9ddb-e1869cfdb9be","GBP","BANK_TRANSFER",1
"13fb983d-f9a1-4aa7-b326-b53f98a26c16","GBP","BANK_TRANSFER",1
"147ac84c-e1d0-4f6d-a92d-e62758cf6304","GBP","BANK_TRANSFER",1
"14f95f61-859f-4ea6-a377-e58fb69339d8","GBP","BANK_TRANSFER",1
"153cc14a-4d12-45b5-b16c-0f0280c4aab3","GBP","BANK_TRANSFER",2
"15639120-2d7f-4ad1-a517-c456de02561c","GBP","BANK_TRANSFER",1
"15812a00-b891-4f8f-b104-0d9c69522d1c","GBP","BANK_TRANSFER",3
"15a3f1ba-8a78-4672-ab41-b0b72e4458c3","GBP","BANK_TRANSFER",3
"15fd8952-d6c5-4a1e-8192-9d4a7310fe72","GBP","BANK_TRANSFER",3
"17c292ea-780c-46b6-910d-9afd54062305","GBP","BANK_TRANSFER",1
"184054dc-0c8b-4ff0-8136-89e1b47fc793","GBP","BANK_TRANSFER",1
"1955f93d-f0f1-4f42-8430-d63e8e7fefa4","GBP","BANK_TRANSFER",1
"1a9e22bd-4cec-47c4-8196-92038ba2e603","GBP","BANK_TRANSFER",4
"1b0cea22-30b3-4ca1-953a-f1ee73503ddc","GBP","BANK_TRANSFER",3
"1b232b1b-4b09-423b-b0ec-33d9f1025538","GBP","BANK_TRANSFER",3
"1bee2afa-a17d-4748-8e9d-0c17c7d0d734","GBP","BANK_TRANSFER",2
"1cb4c90e-b656-4370-94c6-3d9af411c901","GBP","BANK_TRANSFER",1
"1e73d680-8d03-4b06-a0bf-46223bb9e427","GBP","BANK_TRANSFER",1
"1e767519-addb-48b2-914c-9bdd39209c2f","GBP","BANK_TRANSFER",1
"1f527be4-277d-4ab3-b77e-07cf2a7989ae","GBP","BANK_TRANSFER",1
"1f5465ae-86e9-4abb-a475-fece13e55b95","GBP","BANK_TRANSFER",6
"1fa3a5fe-e607-41ad-b524-bf8d040889d7","GBP","BANK_TRANSFER",1
"20100a1d-12bc-41ed-a5e1-bc46216e9696","GBP","BANK_TRANSFER",14
"211d631f-eefe-4b74-9d35-e8b9053579e8","GBP","BANK_TRANSFER",5
"225ae60f-c983-4f44-b83f-0661c9419932","GBP","BANK_TRANSFER",1
"22b588f1-ada6-4ba4-9c17-fce2100b35b8","GBP","BANK_TRANSFER",1
"23c5dc26-4a8d-454a-855e-1305e63b6014","GBP","BANK_TRANSFER",1
"23f19179-ecd3-4f54-b55c-78ffbe0db094","GBP","BANK_TRANSFER",1
"23f8dcd1-3d69-44db-8c10-1ee965c8bfef","GBP","BANK_TRANSFER",1
"249310c8-7cd5-4375-889d-76aeb08672b5","GBP","BANK_TRANSFER",1
"254fdd9e-4ceb-4e6a-a54a-8c37828abea5","GBP","BANK_TRANSFER",1
"2588d6c8-1a2e-4a54-a191-3b3111f9658e","GBP","BANK_TRANSFER",1
"26556494-6355-4888-b5de-9956a32a7bf5","GBP","BANK_TRANSFER",1
"26e8432c-5fdb-4b67-82e6-18f341d511a1","GBP","BANK_TRANSFER",7
"26f2651c-2f8d-4aae-acb7-f902dfbc24ca","GBP","BANK_TRANSFER",1
"270549de-8b76-4fd2-ad80-842f81b647a8","GBP","BANK_TRANSFER",1
"2815c360-6271-4ad9-ac2d-0333019ad3a2","GBP","BANK_TRANSFER",1
"2a6f8724-87e0-481a-8081-a3aed97f48f0","GBP","BANK_TRANSFER",1
"2a94c64d-a5aa-4807-b581-97339f61006b","GBP","BANK_TRANSFER",1
"2aa57451-08aa-4feb-a6ca-438308893039","GBP","BANK_TRANSFER",2
"2ad1c1ee-1073-4e2d-9111-0bd84c0d05d9","GBP","BANK_TRANSFER",4
"2b9c0ac0-e13c-44ea-83f9-14f88f5a2fae","GBP","BANK_TRANSFER",1
"2bb6f304-6a52-4867-a41e-55a91ab8fa8d","GBP","BANK_TRANSFER",1
"2bd07818-df77-4bc2-b7a5-1a68580151de","GBP","BANK_TRANSFER",1
"2c295b27-9f2a-4e48-8463-cd58a3f6ad5a","GBP","BANK_TRANSFER",2
"2c47e75f-938f-4b99-bb82-de9d597851c4","GBP","BANK_TRANSFER",1
"2cb040f5-9029-4599-87db-a6bbc5ddf280","GBP","BANK_TRANSFER",2
"2d885098-76a1-4a94-b28d-fbecbefb28ad","GBP","BANK_TRANSFER",1
"2d9eed66-2287-454c-bb2e-f66c1b858766","GBP","BANK_TRANSFER",1
"2dc5ec96-39fe-4875-9c61-4845c213d7c2","GBP","BANK_TRANSFER",2
"2e0a6c18-6225-4c11-b3d4-8abb6ab7fbea","GBP","BANK_TRANSFER",1
"2ebfe810-61a9-449d-a8af-a06f3bd4bc85","GBP","BANK_TRANSFER",3
"312d1cfc-0832-45f2-91ee-cb58037cb226","GBP","BANK_TRANSFER",2
"316d4345-118d-45f7-ab20-89f6b0c0d1db","GBP","BANK_TRANSFER",1
"3365fa84-0f6f-4656-b834-babf3ac820ef","GBP","BANK_TRANSFER",1
"3476b38c-4613-448d-86cd-20918ccaf5e8","GBP","BANK_TRANSFER",1
"348d3df3-c366-4526-a782-64f10123a803","GBP","BANK_TRANSFER",1
"34e398f7-240d-40cf-8504-e517cb8d30ab","GBP","BANK_TRANSFER",1
"35b8a64f-ad77-42dc-93d9-518d65e63234","GBP","BANK_TRANSFER",1
"3606e298-66e2-4194-8c13-865312dfb682","GBP","BANK_TRANSFER",4
"36ce3f0a-356e-4c77-8f38-4be57840f0a1","GBP","BANK_TRANSFER",1
"3761acd5-c695-422e-82b4-7c429b6b51aa","GBP","BANK_TRANSFER",1
"38278186-c9bc-46ef-9999-c6ab0fdb223b","GBP","BANK_TRANSFER",2
"3870da34-b697-4f37-81b8-29ea847b2496","GBP","BANK_TRANSFER",2
"3981217e-20da-4297-91ab-7c8e5bdfb230","GBP","BANK_TRANSFER",1
"399eee5b-e7a8-4118-ac64-9c27c0add640","GBP","BANK_TRANSFER",1
"39b3f889-bbdd-4d66-93fe-dd75bef27dbf","GBP","BANK_TRANSFER",7
"3a0fa624-4eb1-4189-991d-c89ca431f8a5","GBP","BANK_TRANSFER",4
"3a9b2f33-5569-4189-8794-b84703577ebc","GBP","BANK_TRANSFER",1
"3b0d7c76-1148-4c92-941d-b278395c7671","GBP","BANK_TRANSFER",3
"3b491fe9-9089-4d0c-8445-3b1414666328","GBP","BANK_TRANSFER",1
"3c29bb7f-b4fe-42a3-b9c7-84f95e3a1e61","GBP","BANK_TRANSFER",1
"3cbc3c66-d0a5-48da-b768-fa021782eb1b","GBP","BANK_TRANSFER",4
"3cc70f9f-1b32-42e9-b37a-01bb7fc1bc77","GBP","BANK_TRANSFER",1
"3cd063b8-ec19-432c-9034-608a7bf8c1e9","GBP","BANK_TRANSFER",3
"3dc70b5a-b453-46d6-979b-a9f54b541d6c","GBP","BANK_TRANSFER",1
"3dd8b1a9-17a7-483f-b1a4-9f23fe55ad61","GBP","BANK_TRANSFER",3
"3e17ac65-50a8-4ad7-b4f9-a815b5f0fbf7","GBP","BANK_TRANSFER",2
"3ec1824e-2cdd-43f0-8d34-897f3425a066","GBP","BANK_TRANSFER",2
"3f575296-e38a-4881-9af5-7b1f266361fa","GBP","BANK_TRANSFER",6
"3f6bb28c-f945-4027-9178-747956c3ea58","GBP","BANK_TRANSFER",4
"3f8c39e2-8970-4d25-bd3f-733bb5b4c3cd","GBP","BANK_TRANSFER",1
"3fc813b5-39dc-4780-bd4f-bd7f9c6fdb5b","GBP","BANK_TRANSFER",4
"3fcb53a9-f8db-4507-904b-28176bd5d0c7","GBP","BANK_TRANSFER",1
"40487cd3-7836-471a-b33d-897e1da959a1","GBP","BANK_TRANSFER",2
"41a3f59d-8b1d-49a7-aef4-2aa2205d96e9","GBP","BANK_TRANSFER",3
"41ec9d0b-100b-4a74-9d09-534dc76967a6","GBP","BANK_TRANSFER",5
"427ae52f-af71-46be-b9aa-d505783c9693","GBP","BANK_TRANSFER",1
"42b4d528-392a-499c-a67d-662a660b6851","GBP","BANK_TRANSFER",1
"4385b132-9cfe-47e3-b8a5-03214bea314c","GBP","BANK_TRANSFER",1
"4406435e-0ba9-431c-bfb4-fda23488efd0","GBP","BANK_TRANSFER",3
"44b0eeea-99bf-4970-b611-1195451b34bd","GBP","BANK_TRANSFER",1
"44c4ebad-987d-4f1e-83d4-15652cb8434a","GBP","BANK_TRANSFER",4
"44ce4a0d-012e-4fdb-82f1-b006799b7450","GBP","BANK_TRANSFER",3
"4589f9fb-7256-4bf7-b8f2-38d43c78e2e1","GBP","BANK_TRANSFER",2
"45d797a8-6064-4346-a847-22cbe16b4e23","GBP","BANK_TRANSFER",2
"45e3c222-38ac-4fdb-b092-ff1639e4438c","GBP","BANK_TRANSFER",8
"46172727-471c-4627-b706-1f9881a8e4d2","GBP","BANK_TRANSFER",11
"462af64f-8cf4-48b2-bc3b-854eb9baa8d9","GBP","BANK_TRANSFER",1
"463ecae6-df4e-44bf-bb4e-ac8c9d013842","GBP","BANK_TRANSFER",1
"46bfac7e-fff1-4232-a5a6-3f069f8acb0b","GBP","BANK_TRANSFER",1
"4710e9f3-79fb-4a4c-ba52-c42c927b3d5e","GBP","BANK_TRANSFER",1
"47ce28ed-1f89-4de7-a4b1-d6f27725bab2","GBP","BANK_TRANSFER",1
"488bdbb9-a360-4bd7-81fc-6130990693a3","GBP","BANK_TRANSFER",1
"49a8a2df-b674-42fb-9f28-7f4732ad313f","GBP","BANK_TRANSFER",1
"4a6de969-6a79-4311-99ea-a53a72fde75e","GBP","BANK_TRANSFER",4
"4a71cf6b-540a-4e4f-8eaa-b4676aed612f","GBP","BANK_TRANSFER",1
"4a96a738-e0ca-46c8-9fc3-1a814b7fbf56","GBP","BANK_TRANSFER",3
"4aabb0da-0658-4ab0-be7c-66fee0de7a0a","GBP","BANK_TRANSFER",2
"4ada4c42-4d43-4820-ab37-349c8030f1b0","GBP","BANK_TRANSFER",2
"4af9791d-c8ff-4fba-aaef-b2fe25b6cbaf","GBP","BANK_TRANSFER",2
"4b6f1812-0b0b-41df-8c7d-9a49c41a790b","GBP","BANK_TRANSFER",1
"4e467f3a-8cb9-4ac3-b26c-832a4e48a38b","GBP","BANK_TRANSFER",1
"4eb205ee-5d70-49a4-9212-df2e754b8b67","GBP","BANK_TRANSFER",2
"4eb42787-dd2f-481a-8c1c-b9f86d683b6b","GBP","BANK_TRANSFER",1
"4efa20df-2d8c-4edd-8dfb-d63743c6de3d","GBP","BANK_TRANSFER",3
"4f71a11d-ae87-4b5d-aed8-c6b009f42cf0","GBP","BANK_TRANSFER",2
"4feae05e-8dda-47c9-9bae-22efedf84a31","GBP","BANK_TRANSFER",2
"50d604bd-bb8e-46ba-8606-15fdb3731f65","GBP","BANK_TRANSFER",1
"510d95da-f984-4fc5-8bc5-a42642d61a28","GBP","BANK_TRANSFER",3
"51c35178-5e6e-490c-b4a0-4b2522e2f548","GBP","BANK_TRANSFER",1
"51cbe2f2-8108-44d6-8454-ef78ed140d5d","GBP","BANK_TRANSFER",1
"51cf0327-f861-4eaf-8f1e-f4bbd1bd3f81","GBP","BANK_TRANSFER",1
"5230b61f-8873-4a4e-91d8-018708a3ac1a","GBP","BANK_TRANSFER",3
"52d63cb1-f7d0-4cfb-949d-51acdad6ee70","GBP","BANK_TRANSFER",1
"53b6be70-a26b-4429-b62a-6460839299e4","GBP","BANK_TRANSFER",1
"53f42795-5559-415a-9e32-176cbd73b3d9","GBP","BANK_TRANSFER",1
"54b1032f-5fc3-45b8-91be-f81696f512a9","GBP","BANK_TRANSFER",5
"55525a77-e67f-458a-8ba8-8c229f91ddb0","GBP","BANK_TRANSFER",1
"556ed90c-ad6c-4109-8ebb-732624ea629a","GBP","BANK_TRANSFER",1
"574fa066-a47a-44f2-af90-8f6d2f2ef78d","GBP","BANK_TRANSFER",3
"576ff116-9929-4ef1-8b0f-3f802cc97b11","GBP","BANK_TRANSFER",4
"57a51df9-708d-4467-8d20-beab7f8f5794","GBP","BANK_TRANSFER",1
"586aebc4-0b31-4676-8e5a-d7978a4bbff5","GBP","BANK_TRANSFER",2
"58fac921-19a7-4de2-bb09-df9a14e5d672","GBP","BANK_TRANSFER",1
"59151119-e6be-4f20-a1dd-221bd16d220e","GBP","BANK_TRANSFER",3
"59d3efe9-135b-4b44-ac59-80a13da8109a","GBP","BANK_TRANSFER",11
"59f8ac07-be2b-4902-8662-bb46aa6eee9e","GBP","BANK_TRANSFER",7
"5a9ebc06-0fd0-4fa0-b93d-791a885fd028","GBP","BANK_TRANSFER",3
"5ac1876e-1822-4e12-8fce-ac8858d7b7e3","GBP","BANK_TRANSFER",1
"5b14dedc-a9f4-40f4-a390-b432820517ad","GBP","BANK_TRANSFER",2
"5b49dcdb-c8da-46f8-b27c-6496f968b5d3","GBP","BANK_TRANSFER",2
"5bd4f815-467c-472b-8c0c-d5dbc4699d72","GBP","BANK_TRANSFER",3
"5c2d8bfc-9fd9-450a-acdb-68277f187a11","GBP","BANK_TRANSFER",4
"5d218590-80a6-411f-850c-1da2d049d5c4","GBP","BANK_TRANSFER",1
"5db6714c-8f51-458f-b421-8e0776e38a39","GBP","BANK_TRANSFER",1
"5e0a573f-8002-45be-894a-25c65170a3af","GBP","BANK_TRANSFER",1
"5e4d2910-ece0-40d3-803c-73f341eebdb1","GBP","BANK_TRANSFER",2
"5ec8b9fd-55c0-4db0-8cc2-2f26a3c42350","GBP","BANK_TRANSFER",1
"5f37ca97-8aa0-4fd9-bce4-1eb50240c2ff","GBP","BANK_TRANSFER",4
"5f5df33a-7b59-4246-a53a-ff416b763b43","GBP","BANK_TRANSFER",2
"5fd70cca-1685-40ad-a312-7d387f6911a9","GBP","BANK_TRANSFER",4
"60697b8c-8b8e-452b-91f0-35d9fc22268a","GBP","BANK_TRANSFER",1
"60808398-e36d-43ac-98ca-8ec3c2fa5bb0","GBP","BANK_TRANSFER",2
"60abe217-3349-477a-acae-315a94582a02","GBP","BANK_TRANSFER",1
"60bb9bc2-62e0-4d54-a2db-54d71f38d6c6","GBP","BANK_TRANSFER",1
"60d3238c-84bd-4ac2-b561-bb1062d44f27","GBP","BANK_TRANSFER",1
"612c861c-708d-4358-89be-2fbab47659a4","GBP","BANK_TRANSFER",1
"6169c830-f34d-49e3-a6ab-1255be3e91b6","GBP","BANK_TRANSFER",2
"616a1ab0-31c5-4a8a-a0fe-0f7cb78c617f","GBP","BANK_TRANSFER",5
"61eacba2-b774-44db-a54c-4e69fe20da84","GBP","BANK_TRANSFER",2
"62427e63-8a76-48b0-b3b0-8f33e5cfef39","GBP","BANK_TRANSFER",2
"62a68214-d280-420a-a0f5-793cdfa42443","GBP","BANK_TRANSFER",1
"62aaa0fb-65ae-44b6-884d-56f38a302b3e","GBP","BANK_TRANSFER",5
"62f45dfe-1f23-45a8-9d42-57516164c18e","GBP","BANK_TRANSFER",2
"642800ef-f622-4adf-bac4-145e5858afad","GBP","BANK_TRANSFER",2
"64f168e8-0468-47f0-a6d0-fe5d70c9af63","GBP","BANK_TRANSFER",3
"65894407-3e3b-4962-af89-b11ea693695a","GBP","BANK_TRANSFER",2
"65a54743-5bc0-41bf-9cac-e30d503925d2","GBP","BANK_TRANSFER",1
"65ac0928-e17d-4636-96f4-ebe6bdb9c98d","GBP","BANK_TRANSFER",11
"65f8102d-4223-4c6f-9bf8-81421b721007","GBP","BANK_TRANSFER",1
"66482ae5-b779-4975-bdae-a5e64bdeb057","GBP","BANK_TRANSFER",1
"66573e65-b0e1-4b2d-aab5-7b7a097c5df3","GBP","BANK_TRANSFER",3
"66759444-6c27-4076-be7d-cc374a50185b","GBP","BANK_TRANSFER",2
"674ab841-acb9-4fb5-9faf-ed46114cbc80","GBP","BANK_TRANSFER",1
"678b74b3-34cd-426f-98e2-efafa56826e6","GBP","BANK_TRANSFER",5
"679381fb-f71a-4d8c-99b3-5d32fd7462ff","GBP","BANK_TRANSFER",2
"68b04d44-f1c9-46f1-8807-2193b4eb31d5","GBP","BANK_TRANSFER",1
"68c81cbf-98e2-4418-86de-ec8c4b57e512","GBP","BANK_TRANSFER",3
"68d1de5e-f74b-4f06-a2c6-ab8b1961f30a","GBP","BANK_TRANSFER",3
"694e66b2-baa1-4912-87eb-adc7fdd41dd8","GBP","BANK_TRANSFER",4
"6a94069c-cc53-4e82-b2eb-bc125ced3edc","GBP","BANK_TRANSFER",1
"6b282ace-7348-48fa-97ad-14e4023fc1f5","GBP","BANK_TRANSFER",2
"6b80d5bf-a537-4b39-aeb3-06c80f0284f5","GBP","BANK_TRANSFER",1
"6c100d60-578f-4ee2-8520-2f725ba2dbf9","GBP","BANK_TRANSFER",1
"6c8b333f-86e9-44a7-8fba-c8fe4ff7e78c","GBP","BANK_TRANSFER",1
"6cae3eb6-515c-4811-8b51-32fb2e95da28","GBP","BANK_TRANSFER",5
"6d186bff-b4b5-4226-95b9-5a221472c7fc","GBP","BANK_TRANSFER",2
"6d4d3a1b-c9cf-48fd-92fd-8019ebdad02d","GBP","BANK_TRANSFER",1
"6e643774-513d-4184-af80-5f696210aea5","GBP","BANK_TRANSFER",1
"6ec8a147-162a-461f-9a89-34cbb1275dff","GBP","BANK_TRANSFER",1
"6eca0a0c-1f5a-4a06-ba69-b864cb8a759f","GBP","BANK_TRANSFER",1
"6f4da135-a831-45ac-b4d7-f70a40efe71e","GBP","BANK_TRANSFER",2
"714661e3-b09b-42ef-a7b8-14a90bd455f5","GBP","BANK_TRANSFER",5
"7171224e-dbda-4905-8288-8a99e4006fe7","GBP","BANK_TRANSFER",1
"71aa9559-601d-43a8-bee0-352862ebb72a","GBP","BANK_TRANSFER",4
"737a7b7b-063c-4cd9-a91f-8266da1a6bff","GBP","BANK_TRANSFER",1
"74e92384-c36a-4f97-a847-3325f34a9b19","GBP","BANK_TRANSFER",1
"74fdc60d-ee12-47c1-85f0-1c7dd1dbbf16","GBP","BANK_TRANSFER",5
"75b3e7b0-8bf7-42ae-8501-529bd1e1bf8f","GBP","BANK_TRANSFER",1
"769c5f83-14e6-427d-bba2-879b3ce4d633","GBP","BANK_TRANSFER",6
"7717f6ff-1e56-46b4-b229-feb904055696","GBP","BANK_TRANSFER",2
"78018401-b3d1-4373-b53e-25d3bc1e38a9","GBP","BANK_TRANSFER",1
"78b11d0b-a3e3-4e04-908c-1c3f58ed22dd","GBP","BANK_TRANSFER",1
"78c3ad76-21d8-4988-b6d5-ce0cebcbcc01","GBP","BANK_TRANSFER",12
"795d2a95-b3c5-4af9-a844-b9f04e5caa12","GBP","BANK_TRANSFER",1
"797209a2-02f1-4d86-ad39-4607f85ed00c","GBP","BANK_TRANSFER",1
"79d9742c-6b53-48f7-acd1-d259903ab50f","GBP","BANK_TRANSFER",2
"79dbbbda-e552-4dfe-a5fa-37440be3adb7","GBP","BANK_TRANSFER",2
"7a3d63c3-1336-4916-86d8-bfae203187b9","GBP","BANK_TRANSFER",1
"7a689aea-4133-4434-bad6-fa2b78b113fd","GBP","BANK_TRANSFER",1
"7aedd7a8-f400-4a8f-82cd-e32aa05c3ae7","GBP","BANK_TRANSFER",1
"7bb3ba6d-ec1f-4d3b-a7ad-c8cfe1595202","GBP","BANK_TRANSFER",4
"7c5b9425-9704-4601-a301-5c90be7d2d1a","GBP","BANK_TRANSFER",1
"7e0980dd-f859-4fab-8b46-6d5f35bbc029","GBP","BANK_TRANSFER",1
"7e91f710-1690-480e-9a2d-70d7f38c3836","GBP","BANK_TRANSFER",1
"7eb785b1-8b7a-46b8-8933-5756a73106e0","GBP","BANK_TRANSFER",2
"7eb81b2e-11c5-4519-9724-26401b369f91","GBP","BANK_TRANSFER",1
"7ef6a0bc-f2ca-4a72-8b20-20f5e7f3a68c","GBP","BANK_TRANSFER",1
"7fa6b2d3-f103-4010-9196-0cb5db511dd3","GBP","BANK_TRANSFER",1
"7fbc6995-0a91-4f71-b44a-69119d028707","GBP","BANK_TRANSFER",1
"80431c45-ffdb-4399-959b-7bc400d7ea54","GBP","BANK_TRANSFER",1
"80748402-f029-45f0-ac6e-250e94de0812","GBP","BANK_TRANSFER",2
"80ac4841-8679-45e2-b17b-0b0505257d39","GBP","BANK_TRANSFER",1
"81562955-e800-4ad9-a11c-6226ff8ff3a9","GBP","BANK_TRANSFER",1
"819e148e-01d0-43bc-8681-e4770a50a5aa","GBP","BANK_TRANSFER",2
"81fa21d0-e9c7-40ce-b8b3-f8eea712d1cb","GBP","BANK_TRANSFER",1
"826be7c5-2d4f-4422-b631-2f706377eda3","GBP","BANK_TRANSFER",2
"826dc8df-8d9d-475d-8275-a3b23096ca82","GBP","BANK_TRANSFER",2
"82866530-93ca-4c1a-a89a-8e40a7757bf6","GBP","BANK_TRANSFER",1
"82942cd7-0e03-4437-abae-d53148e4b58a","GBP","BANK_TRANSFER",4
"829a096c-4c7a-4ee9-b7cb-47456c5661e9","GBP","BANK_TRANSFER",1
"84020048-ade9-4eb6-9a0a-8e43f4f7d312","GBP","BANK_TRANSFER",3
"8437d5b3-c909-472b-ab48-552d4452c8f4","GBP","BANK_TRANSFER",1
"846c837d-6c52-48a3-b035-86cf236bec74","GBP","BANK_TRANSFER",8
"84e22e7f-f2ab-413c-969a-667c78d8885c","GBP","BANK_TRANSFER",11
"85601aa9-9bc6-42a5-8e20-1d808f9ddc9c","GBP","BANK_TRANSFER",1
"8594ff16-5d0f-43c9-93bb-c954966077a9","GBP","BANK_TRANSFER",1
"86443b86-2a39-4686-9647-3c746353783f","GBP","BANK_TRANSFER",1
"86459777-d822-49ef-a9e0-95c2c82adeea","GBP","BANK_TRANSFER",2
"86b459a4-e242-4c61-9038-f069ab7b1c14","GBP","BANK_TRANSFER",2
"86e44254-0b5f-4318-bda7-0fea19f42c26","GBP","BANK_TRANSFER",1
"87a390af-2f35-40ec-a111-16d43fc5a3e3","GBP","BANK_TRANSFER",8
"87e5465a-a8a5-46eb-b7c0-29af2633e114","GBP","BANK_TRANSFER",1
"87e5ef11-0bbc-4f97-9a2d-5192f687b323","GBP","BANK_TRANSFER",1
"88b1c82e-d7ac-45aa-aa96-eb3f619beaf5","GBP","BANK_TRANSFER",1
"890d59c8-735f-4f9d-b75e-12f44e2c5b02","GBP","BANK_TRANSFER",2
"89594a0e-f75e-477c-bdf4-9ab9d4962eed","GBP","BANK_TRANSFER",3
"8a7d0842-251c-4088-8610-c1fe98b045d7","GBP","BANK_TRANSFER",1
"8c207efd-5c55-4924-a080-31edc4d69efa","GBP","BANK_TRANSFER",1
"8c25ea77-4832-476e-a531-287612005948","GBP","BANK_TRANSFER",1
"8c4dc5bd-00e0-40b5-ba3e-496c1b9e3eb3","GBP","BANK_TRANSFER",1
"8ca1b9ce-8d58-416f-90eb-6c666fc866bd","GBP","BANK_TRANSFER",3
"8d00ff2c-fb40-4a07-b73f-a09fe3da3f34","GBP","BANK_TRANSFER",1
"8d61b24a-4fe7-48ae-a31a-3ecd5f8a6cfd","GBP","BANK_TRANSFER",2
"8dd8b009-bcc7-4b14-a26f-c87c232383f4","GBP","BANK_TRANSFER",6
"8e1146cc-a9bc-4d48-beeb-bdf333424d82","GBP","BANK_TRANSFER",6
"8f60a7f1-d8ab-47e6-9ae4-25c1a2b858f5","GBP","BANK_TRANSFER",1
"8ff8232c-350f-401c-abd4-d093753ebf47","GBP","BANK_TRANSFER",2
"9034221d-cb6b-452b-8afe-913d95b90bbc","GBP","BANK_TRANSFER",1
"903c8983-829c-4622-a2a9-c4f7fef5a9e4","GBP","BANK_TRANSFER",1
"9068982f-6798-4721-9ee3-90ba1c857772","GBP","BANK_TRANSFER",1
"90a549c7-e000-4556-bf4e-f3ab45bd109e","GBP","BANK_TRANSFER",1
"90ad0406-c7d3-4a9a-9579-a9a27bdf1965","GBP","BANK_TRANSFER",1
"90cce8fd-7d79-45f7-8fd4-961eb668924f","GBP","BANK_TRANSFER",1
"91a889bf-1ba6-49dd-bc35-fcafeb6a07e6","GBP","BANK_TRANSFER",2
"924c6edd-3333-49da-8f95-9fda792aa446","GBP","BANK_TRANSFER",1
"92b44968-5cd9-47bf-af03-2c2b813dbe49","GBP","BANK_TRANSFER",1
"9385d36c-9a6c-493e-b944-6b0bbfbadf88","GBP","BANK_TRANSFER",1
"93ee5358-e782-42b2-b9ac-1478c180476f","GBP","BANK_TRANSFER",1
"94257c7d-7eb7-4b69-9e11-71131a59ca50","GBP","BANK_TRANSFER",3
"949acea2-aff8-4ed4-835f-1b6e13939ec5","GBP","BANK_TRANSFER",5
"9654603e-a1a5-4e53-a388-5fd0607baca3","GBP","BANK_TRANSFER",3
"9659909c-0232-4cc1-802f-9f17cfa18d27","GBP","BANK_TRANSFER",1
"968aa748-7411-4d66-904b-19362253b866","GBP","BANK_TRANSFER",2
"96a6602f-edc3-433f-9f61-600b74df0c48","GBP","BANK_TRANSFER",2
"97267cab-3d3e-4796-a093-b2e0adc499e6","GBP","BANK_TRANSFER",2
"97358d99-4cc2-4ae4-afa7-ced0947a2b3b","GBP","BANK_TRANSFER",1
"97528ad1-413e-461a-9083-188da333c9e1","GBP","BANK_TRANSFER",7
"97b538b5-5803-46fd-9f4d-77a2caa2dda1","GBP","BANK_TRANSFER",1
"9818dd87-8580-4047-9d1b-db808fb5f1ff","GBP","BANK_TRANSFER",1
"984cee49-d411-43da-b1c2-7816f877cbe8","GBP","BANK_TRANSFER",1
"986b58d2-440c-486e-a986-c82f233e2a44","GBP","BANK_TRANSFER",1
"99577857-5cfd-42bd-98dc-4a3fe63dfbad","GBP","BANK_TRANSFER",1
"997efc31-b2fd-49f5-946f-d11cb2c0621d","GBP","BANK_TRANSFER",1
"99a7a7a3-f7f9-4e16-9227-328cc983d774","GBP","BANK_TRANSFER",1
"99bc19bc-6b5f-4dba-8643-00a278f3edf4","GBP","BANK_TRANSFER",7
"9a39e1f0-25f3-44fc-b400-ca4a0b2c767e","GBP","BANK_TRANSFER",1
"9a7ce58d-2a26-47e7-a3ef-1003770b6ee0","GBP","BANK_TRANSFER",1
"9b21f471-7db3-49ab-8f6b-66472540e2b5","GBP","BANK_TRANSFER",1
"9b3bec96-fa19-42c6-8cf4-a5a33b74b59c","GBP","BANK_TRANSFER",1
"9b3e3d02-e389-4a56-8fe1-6d6a7357e8c9","GBP","BANK_TRANSFER",2
"9bcbfaa5-15c4-4a66-8cbd-1fc5accefd5f","GBP","BANK_TRANSFER",1
"9c8a1ea6-b57c-4084-ac2d-58bc339e4e86","GBP","BANK_TRANSFER",5
"9cb5f8ab-dc78-4968-a28e-90da31614ecb","GBP","BANK_TRANSFER",4
"9d297dbc-22e0-464f-a805-bcca7135438c","GBP","BANK_TRANSFER",2
"9e988c5b-71d0-4f3e-8f81-b3c30aa9c240","GBP","BANK_TRANSFER",8
"9f236a4c-4b46-40d2-b0b7-bdd84ecf54d0","GBP","BANK_TRANSFER",1
"9f85e8b0-35ff-42f2-96c7-7ad53c1b36fa","GBP","BANK_TRANSFER",2
"9fed8ece-06c6-4b3d-8984-bff234de897c","GBP","BANK_TRANSFER",1
"a00ad753-bc65-483d-81f9-80f7d8d39921","GBP","BANK_TRANSFER",1
"a083eeaf-cf5e-4459-a57d-652807835c07","GBP","BANK_TRANSFER",3
"a0d355b2-d5c0-4a58-8cef-7362ecd78d68","GBP","BANK_TRANSFER",1
"a1f0a86a-188c-49e9-a04f-ce403e582780","GBP","BANK_TRANSFER",2
"a25ebe5f-b653-43fd-b704-5709fb231b06","GBP","BANK_TRANSFER",1
"a2946601-c570-4952-a5af-1028debc22de","GBP","BANK_TRANSFER",1
"a2e41203-a8f5-4744-97ca-dfb04479cde9","GBP","BANK_TRANSFER",1
"a5204849-067e-47cf-8c38-15a13bac8b57","GBP","BANK_TRANSFER",2
"a521d670-56fc-4833-a332-5dafdf4fe0da","GBP","BANK_TRANSFER",2
"a5a5a51b-bcea-4bfa-a137-003d8e3e0a99","GBP","BANK_TRANSFER",2
"a73aecf2-9b09-4b8d-8ca8-84fb971ba20c","GBP","BANK_TRANSFER",1
"a7d946ee-a639-4d3b-b05d-11a21a54d73e","GBP","BANK_TRANSFER",1
"a985f42d-3eeb-419a-9dde-16898b88a84f","GBP","BANK_TRANSFER",1
"a9b91469-c40e-4276-847a-a25a3528a604","GBP","BANK_TRANSFER",4
"aae2d52c-5a63-4ca2-8dbf-89429f259862","GBP","BANK_TRANSFER",2
"ab3d8536-1ce0-4de1-aaa6-4a8fc395fff8","GBP","BANK_TRANSFER",6
"ad04beda-c9b4-4f83-9f9b-17e8e775c72e","GBP","BANK_TRANSFER",1
"ad6fd25c-e271-437b-a953-a9a191f72684","GBP","BANK_TRANSFER",1
"adae73e0-a036-4bc4-b202-c220554e49c8","GBP","BANK_TRANSFER",1
"ae30701a-b3b7-4316-a1c7-b844fada42bb","GBP","BANK_TRANSFER",1
"aed21f21-111d-4efd-b114-b08c24f6dd18","GBP","BANK_TRANSFER",3
"aee96b8e-97fc-4a14-94fb-0ee436e0272d","GBP","BANK_TRANSFER",4
"af1daafe-92c1-4c3a-9817-15f0374dbe69","GBP","BANK_TRANSFER",1
"af3435f8-f75d-4116-ab74-a087c52117d2","GBP","BANK_TRANSFER",1
"b12144cf-efe1-42ed-adaf-d566d556371a","GBP","BANK_TRANSFER",1
"b1693eae-6a23-49af-be37-14ecdb77ab6f","GBP","BANK_TRANSFER",7
"b20573d1-0915-4c0b-84d0-4fa253784981","GBP","BANK_TRANSFER",7
"b27de25f-1d4b-42fc-aa65-baa39852d52f","GBP","BANK_TRANSFER",8
"b2f35bd3-397f-47bd-ac63-ce32765f6175","GBP","BANK_TRANSFER",1
"b2fc491b-1bf1-409b-be49-770881e3476e","GBP","BANK_TRANSFER",4
"b2fe75b4-042a-4d00-8564-8bd8fff246bf","GBP","BANK_TRANSFER",1
"b31245ba-0ceb-4209-b563-5b4fd2596887","GBP","BANK_TRANSFER",3
"b41daff8-2a28-4deb-9ef0-1eac829446b8","GBP","BANK_TRANSFER",2
"b4c1e2ed-731b-418c-b342-7cee69e1babb","GBP","BANK_TRANSFER",3
"b50ec489-4de0-454a-86c6-850a8b43299d","GBP","BANK_TRANSFER",1
"b55ecb70-7c15-42c0-986c-620cb57eaad7","GBP","BANK_TRANSFER",1
"b616d55d-90ab-4107-b77b-8bea24fd22b5","GBP","BANK_TRANSFER",1
"b69856ee-b0ec-4b66-90c1-f3e9ac44582e","GBP","BANK_TRANSFER",1
"b728fab9-b260-463a-ba2a-136fc4fe3722","GBP","BANK_TRANSFER",1
"b79acb3c-47d7-4587-8e4c-15dffa6c6a71","GBP","BANK_TRANSFER",2
"b7e37822-a6f3-40f8-9c35-86f30151070d","GBP","BANK_TRANSFER",2
"b8b0ef13-05aa-4463-bcdb-fd3a6c352b71","GBP","BANK_TRANSFER",2
"b96cb757-2899-4988-af3e-2eb29e467555","GBP","BANK_TRANSFER",3
"b99b5da0-a202-40ee-9793-018b7008dd9d","GBP","BANK_TRANSFER",2
"b9b478b6-9d0d-4e57-8da2-a42b45925a2d","GBP","BANK_TRANSFER",1
"b9d1ed94-a35a-402b-957d-fadb37e365be","GBP","BANK_TRANSFER",3
"b9df392b-7b0d-425c-91df-a6885e2e8ea6","GBP","BANK_TRANSFER",3
"b9e641b8-553d-4f90-86f2-6faa9906772d","GBP","BANK_TRANSFER",1
"ba1ad0cb-b11d-4f7d-831b-66eb0a284c11","GBP","BANK_TRANSFER",2
"bc176d7b-3694-48e1-9df0-a5b642cbf1ff","GBP","BANK_TRANSFER",5
"bc1ab5fb-149f-4efc-b713-e871444feb09","GBP","BANK_TRANSFER",1
"bc68f7b2-0be9-457a-a729-85099204986c","GBP","BANK_TRANSFER",1
"bcabf2b8-388c-483e-a51c-d60cf24751ca","GBP","BANK_TRANSFER",1
"bdc568e7-a81c-4a64-a8c2-e89c104272a5","GBP","BANK_TRANSFER",1
"bdeb1766-26cd-49bd-91c4-17559c39cea1","GBP","BANK_TRANSFER",2
"be675d8f-b0db-41fe-af54-839dd3fd3cdb","GBP","BANK_TRANSFER",2
"be8a8ecd-f910-416a-9ced-b6647bad6d08","GBP","BANK_TRANSFER",2
"bf0361fa-64a9-4e1d-9163-50c48eccbc18","GBP","BANK_TRANSFER",2
"bfb05d7c-6cb6-4dad-a1e3-7ee9dd76901c","GBP","BANK_TRANSFER",2
"c038d20a-901a-49cc-8bb1-e2cf57e82461","GBP","BANK_TRANSFER",1
"c069a845-b843-475e-af4f-a27e379f1c76","GBP","BANK_TRANSFER",2
"c190d923-ff58-4995-b260-1407b29366ff","GBP","BANK_TRANSFER",2
"c1e2750b-9031-4720-83a1-24cc6701f71a","GBP","BANK_TRANSFER",6
"c23654ed-497c-477f-9bfe-c18b306d423f","GBP","BANK_TRANSFER",1
"c2e8a724-b541-47fc-ad3c-8daf8540989a","GBP","BANK_TRANSFER",3
"c2f3d45d-3d6e-4b6c-8004-4281fca31f97","GBP","BANK_TRANSFER",1
"c38aa6f6-cb09-4a98-9450-af58fe8a944a","GBP","BANK_TRANSFER",1
"c4275704-1d35-4e13-9294-dafbd40c7746","GBP","BANK_TRANSFER",1
"c4301486-1e88-4d7f-a5f6-68f1e24f6403","GBP","BANK_TRANSFER",2
"c46f0044-4aee-46fb-a5a7-c9b1bb66a5a8","GBP","BANK_TRANSFER",1
"c483216d-b457-44cc-bdab-9a65f44c9620","GBP","BANK_TRANSFER",1
"c50ceb96-2173-4629-8079-8326b5c5c962","GBP","BANK_TRANSFER",1
"c552625d-5522-4fe9-bc2d-910693e11dcc","GBP","BANK_TRANSFER",1
"c59925c8-7242-450a-a812-a9b90925c786","GBP","BANK_TRANSFER",1
"c5b6b80a-a568-4e87-aa94-b112b66a7a20","GBP","BANK_TRANSFER",1
"c5fa5f8a-9cf8-4dc2-8f4c-2cce4bb9696c","GBP","BANK_TRANSFER",4
"c66d03e5-3f2c-45c7-8ca4-11beed288138","GBP","BANK_TRANSFER",3
"c73660bc-c4f7-43c6-a189-b4ded615fce8","GBP","BANK_TRANSFER",2
"c7694312-35a7-4d41-ad51-76133c8bfe83","GBP","BANK_TRANSFER",1
"c876e9f6-c0f8-4ee6-80a0-2a9ef751cc80","GBP","BANK_TRANSFER",1
"c8a15f57-c18c-4af7-8c5e-b80f50f370c4","GBP","BANK_TRANSFER",4
"c8a5cdbf-a61a-4a64-a93e-6ee7697a709f","GBP","BANK_TRANSFER",2
"c94c2fa7-06cc-4c4e-b5b8-c8fcc20798f6","GBP","BANK_TRANSFER",2
"c989cb7f-6197-44f2-8628-e1130ea2655b","GBP","BANK_TRANSFER",1
"cb1ea2ae-8157-4df0-af71-c7107abdd66e","GBP","BANK_TRANSFER",1
"cc0cd2dc-845c-46a3-aa33-07dc3ad30551","GBP","BANK_TRANSFER",1
"cd95984d-2d7c-4b14-9f34-2efe98229d53","GBP","BANK_TRANSFER",1
"ce0438bc-65b6-44a2-bd5f-42abc3fe6a88","GBP","BANK_TRANSFER",1
"cf4fe1a9-9af5-40f6-bdaa-1bbee2ffc37f","GBP","BANK_TRANSFER",2
"cfa937ea-d621-4c4b-b649-7548f2f8b58d","GBP","BANK_TRANSFER",1
"cfb5d26f-66f6-4aba-abfd-38c5f6a58c3f","GBP","BANK_TRANSFER",6
"cfc95253-f390-4392-ba97-5c3f83bea345","GBP","BANK_TRANSFER",3
"cff61bb5-8d97-4cdd-aa7b-06a7b58d344b","GBP","BANK_TRANSFER",1
"d09fd7f0-1649-4e72-af01-738cd6328afc","GBP","BANK_TRANSFER",1
"d1bc3cd6-154e-479f-8957-a69cdf414462","GBP","BANK_TRANSFER",12
"d233d115-73d2-4166-b344-907d343e2e0d","GBP","BANK_TRANSFER",1
"d28fa355-d501-4e61-a523-343a16af7bd2","GBP","BANK_TRANSFER",1
"d2d6f48a-c3bc-4d98-be4a-e822fcf5fd2d","GBP","BANK_TRANSFER",3
"d3088f69-6436-49ea-8513-23fe3afbdcdb","GBP","BANK_TRANSFER",1
"d34c8951-66c9-48d9-99d0-7efaa89c9548","GBP","BANK_TRANSFER",3
"d35f19f3-d9ad-48bf-bd1e-90f3ba4f0b98","GBP","BANK_TRANSFER",17
"d3a22758-eb6d-4d94-b10b-72ab152bbf51","GBP","BANK_TRANSFER",2
"d3b4b2fc-554b-4465-ad23-25889df130c5","GBP","BANK_TRANSFER",2
"d3ea5afc-69c5-4685-9746-6467709c9508","GBP","BANK_TRANSFER",2
"d4571a7b-fdbb-4be7-acbd-f1f4053d2fec","GBP","BANK_TRANSFER",1
"d49f68d5-b841-4746-953c-41167a1bd9d3","GBP","BANK_TRANSFER",1
"d59353be-bbbc-495d-a4ef-dda4d67ea02f","GBP","BANK_TRANSFER",1
"d5e09567-4cd7-40fb-846f-5f9c5f8341dc","GBP","BANK_TRANSFER",5
"d64d0f1f-01ac-40c5-8cac-5d69c595b275","GBP","BANK_TRANSFER",1
"d6666b1c-0c4a-461e-a665-343134359c82","GBP","BANK_TRANSFER",1
"d8624073-0c9b-4fd3-ba3a-f48cdb7c5001","GBP","BANK_TRANSFER",1
"d91e4426-38cb-4469-804f-2b727298dcf4","GBP","BANK_TRANSFER",1
"d9203ee5-678a-4734-94a9-4d3761d73b09","GBP","BANK_TRANSFER",1
"d946de62-5f52-4f66-8142-9385118aec85","GBP","BANK_TRANSFER",1
"d9f51131-1e4d-4abb-b16f-705482e4b614","GBP","BANK_TRANSFER",2
"da18f4b0-f1b6-4cd9-9962-a53dd65974ad","GBP","BANK_TRANSFER",1
"dab722a5-8bdf-4763-88be-82915cc618ff","GBP","BANK_TRANSFER",6
"db99d304-92ca-42bb-9051-ae49af4ed014","GBP","BANK_TRANSFER",1
"dc43bf64-4cfe-4474-9ded-05b4728ef71d","GBP","BANK_TRANSFER",3
"dc5e2729-0123-4f81-9750-ff4fffdcbffe","GBP","BANK_TRANSFER",2
"dcae1b24-d3f8-4f68-b4e2-6a9aa987e90f","GBP","BANK_TRANSFER",1
"dcf71a73-95b5-4ddb-a193-338a159132df","GBP","BANK_TRANSFER",1
"dd1bc3eb-c6ef-4139-acf5-f79b02d1f653","GBP","BANK_TRANSFER",7
"ddd339c3-ec9d-4e80-befb-00369d69232b","GBP","BANK_TRANSFER",1
"ded2d8db-80d1-4f00-bef7-94bd59fa4595","GBP","BANK_TRANSFER",2
"dfa1ad87-7fec-476e-957d-edb967984b8c","GBP","BANK_TRANSFER",2
"dfbf8b94-0b5c-4e71-b780-39dbf2fdea87","GBP","BANK_TRANSFER",1
"e00e5118-170b-4742-9a07-b6cbc111c2f4","GBP","BANK_TRANSFER",2
"e050e11d-5a81-432b-b4c7-86891ea29693","GBP","BANK_TRANSFER",1
"e11705ed-6627-449f-8810-5c299df49e65","GBP","BANK_TRANSFER",1
"e129ea81-3b7f-417d-8cdc-dd59f3bb9e7f","GBP","BANK_TRANSFER",2
"e18b2729-3b60-4a93-932d-a66551870ea7","GBP","BANK_TRANSFER",1
"e1bf0c2f-a491-48ca-a6cf-4356d96e6d79","GBP","BANK_TRANSFER",1
"e1d48957-0d50-44d0-b52e-51ae60ecf40e","GBP","BANK_TRANSFER",1
"e27a3d1f-4adb-43eb-92a8-102b53511dbf","GBP","BANK_TRANSFER",1
"e2f49dc7-94aa-4544-91ed-eb48fed95f76","GBP","BANK_TRANSFER",2
"e318d944-e7cf-4d65-a6eb-aa11f10c2574","GBP","BANK_TRANSFER",3
"e391e598-527f-4cac-98e6-9e7f696531c4","GBP","BANK_TRANSFER",2
"e3ddaf98-a525-43fa-b293-a087d95c492d","GBP","BANK_TRANSFER",1
"e4c0befe-0325-438a-b47d-ee6643c05184","GBP","BANK_TRANSFER",4
"e4f0cce6-dcbd-4aac-97b6-8bfac0b2a482","GBP","BANK_TRANSFER",1
"e56c19b5-92d6-42e1-b758-7974989733bb","GBP","BANK_TRANSFER",1
"e627ed80-e3fe-40b5-aed0-d7c7c28f69b4","GBP","BANK_TRANSFER",1
"e6da1a15-a24e-429b-a590-6d153b0e20af","GBP","BANK_TRANSFER",1
"e82b7073-7bda-477f-b1b6-4fc91b58c0a2","GBP","BANK_TRANSFER",1
"e89e6a80-803f-488e-89e1-0b7792eb9ea4","GBP","BANK_TRANSFER",7
"e8ecd1c0-a906-43dc-ae86-6e1f2269a08b","GBP","BANK_TRANSFER",3
"e946e853-845f-452a-b1c0-fe2ba2bc4aa0","GBP","BANK_TRANSFER",2
"e97dd42b-0871-4c68-9b58-5f09965e143b","GBP","BANK_TRANSFER",1
"e99dce21-5848-4237-945a-b48ec51abfe8","GBP","BANK_TRANSFER",2
"ea86c877-ff87-4caa-8b76-3a05b89850d1","GBP","BANK_TRANSFER",1
"eabeb600-8010-4eaa-9845-91a20e385996","GBP","BANK_TRANSFER",3
"eb12901d-df99-41f9-a230-a3e1a4a4a91c","GBP","BANK_TRANSFER",2
"eb1a5c45-ef30-4920-9895-1c433f153652","GBP","BANK_TRANSFER",3
"eb2e7c2b-88de-48dd-8717-4cbca15a3d22","GBP","BANK_TRANSFER",1
"eb3a952f-1949-46e9-bbf2-a7e243207dd7","GBP","BANK_TRANSFER",2
"ec08c44e-da34-44f6-9acb-8f2cc3909e81","GBP","BANK_TRANSFER",5
"ec4fd825-7167-450b-aa9f-0cbcf681978b","GBP","BANK_TRANSFER",3
"ecdb5c92-1d5d-4d47-bd13-8ec14ce4339c","GBP","BANK_TRANSFER",1
"ed5cd2e5-7fbd-4f9b-b765-e07d63b7cc2c","GBP","BANK_TRANSFER",1
"edefd727-7189-4c44-87a3-5b8041445f95","GBP","BANK_TRANSFER",1
"ee69a4a4-1aae-4422-b02a-b65d74d21ef0","GBP","BANK_TRANSFER",2
"eedd99c9-30ef-4a19-b8d4-0bd74c0b9a67","GBP","BANK_TRANSFER",1
"ef072468-2f54-4403-8e53-6581f5220c95","GBP","BANK_TRANSFER",2
"ef0e5640-9ec9-4447-89c1-bbe8828a33c2","GBP","BANK_TRANSFER",1
"ef66d620-3a06-451d-858a-82e94b960698","GBP","BANK_TRANSFER",1
"efdf93de-8156-4a05-b1a5-3ff4ecb2b88d","GBP","BANK_TRANSFER",1
"efedf9d5-ab17-44d9-8caf-830e822a7876","GBP","BANK_TRANSFER",1
"f02f4858-73bc-4c40-8049-9e8307df55d8","GBP","BANK_TRANSFER",2
"f07406e7-9d38-4d77-b5f7-0c103d20da5b","GBP","BANK_TRANSFER",1
"f075c7b3-9049-45a0-83a0-97e5ae144038","GBP","BANK_TRANSFER",2
"f1772245-4581-45eb-8d21-c62586cafba4","GBP","BANK_TRANSFER",2
"f384c716-ad77-4452-bdff-8da3f723a2dc","GBP","BANK_TRANSFER",1
"f38a2bf4-a465-4290-a17b-6aaf79f70255","GBP","BANK_TRANSFER",1
"f54baeeb-7282-4d23-9bb7-e8396ce1b159","GBP","BANK_TRANSFER",9
"f5723f5e-5a00-4851-ae1d-5c11146aa491","GBP","BANK_TRANSFER",4
"f5e3baa2-99af-44a0-b2f4-94a45e11eaeb","GBP","BANK_TRANSFER",1
"f601de33-3a8c-40f1-9109-68dcca20fe56","GBP","BANK_TRANSFER",1
"f63f5c96-2726-4781-8ca4-417c66602e0e","GBP","BANK_TRANSFER",4
"f6e18d54-ba73-4bbd-9a07-058b77839dfa","GBP","BANK_TRANSFER",1
"f79a82ed-a255-4c27-8409-66615346420c","GBP","BANK_TRANSFER",1
"f9a71c4f-d616-40bd-a096-1fbe971b17c8","GBP","BANK_TRANSFER",7
"fa89072a-a899-4528-856b-8331cb596b07","GBP","BANK_TRANSFER",4
"fb337f4f-0ce5-4327-96a6-20dad17b6c16","GBP","BANK_TRANSFER",1
"fc1d4798-fe62-4010-aca0-23422a29a7eb","GBP","BANK_TRANSFER",1
"fc3caa98-360a-44a8-ad2d-04a5dfe18cf7","GBP","BANK_TRANSFER",2
"fc77119c-a484-4b2c-aca7-de0c9bbfa285","GBP","BANK_TRANSFER",2
"fcf7591d-4183-47a8-b322-d4b5e3e3769b","GBP","BANK_TRANSFER",1
"fd95193e-06d4-4bc2-aaba-d0290b3485d8","GBP","BANK_TRANSFER",3
"fda1e55b-7a53-4e2d-862f-b7dda8404936","GBP","BANK_TRANSFER",3
"fde8dd5a-5c34-4bc0-ac65-9014f936ec40","GBP","BANK_TRANSFER",1
"fdee59c1-0e47-4e0d-9e91-4d915f7e9ef7","GBP","BANK_TRANSFER",2
"fdf571ac-7ec1-4a36-867a-0efc55a42570","GBP","BANK_TRANSFER",1
"fe60c35b-b5cc-4e74-86c0-021ea4d5ca63","GBP","BANK_TRANSFER",2
"fe6ea41e-e751-4f1c-86f4-2a8608b753e4","GBP","BANK_TRANSFER",1
"fea57754-5c0f-4cf9-806b-dac550c72109","GBP","BANK_TRANSFER",1
"fec28ec7-84d6-45f8-b00a-d0f309ab30b5","GBP","BANK_TRANSFER",5
"ff822972-1969-4f22-a711-72f603f901c6","GBP","BANK_TRANSFER",1
"ff861ba2-d984-47ae-95a1-5fe143e0710c","GBP","BANK_TRANSFER",1