"MONTH","sub_result","visual_authenticity_result","image_integrity_result","face_detection_result","image_quality_result","supported_document_result","conclusive_document_quality_result","colour_picture_result","data_validation_result","data_consistency_result","data_comparison_result","police_record_result","compromised_document_result"
"2017-06","rejected",0,14,0,5,9,0,0,0,0,0,0,0
"2017-07","rejected",0,2786,0,2432,354,0,0,0,0,0,0,0
"2017-08","rejected",0,4703,0,4234,469,0,0,1,0,0,0,0
"2017-09","rejected",0,6371,0,5983,388,0,0,0,0,0,0,0
"2017-10","rejected",0,12216,0,11749,467,0,0,0,0,0,0,0